Make a model — make_model • CausalQueries
…
#> Y2.01_X.0            0            0
#> Y2.11_X.0            1            0
#> Y2.00_X.1            0            0
#> Y2.10_X.1            0            0
#> Y2.01_X.1            0            0
#> Y2.11_X.1            0            1
#> 
#>  
#>  param_set  (P)
#>  X  Y1.X.0  Y1.X.1  Y2.X.0  Y2.X.1
model <- make_model("X1 -> Y <- X2; X1 <-> Y; X2 <-> Y")
dim(model$P)
#> [1] 68 64
model$parameters_df
#> # A tibble: 68 × 8
#>    param_names      node    gen param_set   nodal_type given  param_value priors
#>    <chr>            <chr> <int> <chr>       <chr>      <chr>        <dbl>  <dbl>
#>  1 X1.0             X1        1 X1          0          ""          0.5         1
#>  2 X1.1             X1        1 X1          1          ""          0.5         1
#>  3 X2.0             X2        2 X2          0          ""          0.5         1
#>  4 X2.1             X2        2 X2          1          ""          0.5         1
#>  5 Y.0000_X1.0_X2.0 Y         3 Y.X1.0.X2.0 0000       "X1.0…      0.0625      1
#>  6 Y.1000_X1.0_X2.0 Y         3 Y.X1.0.X2.0 1000       "X1.0…      0.0625      1
#>  7 Y.0100_X1.0_X2.0 Y         3 Y.X1.0.X2.0 0100       "X1.0…      0.0625      1
#>  8 Y.1100_X1.0_X2.0 Y         3 Y.X1.0.X2.0 1100       "X1.0…      0.0625      1
#>  9 Y.0010_X1.0_X2.0 Y         3 Y.X1.0.X2.0 0010       "X1.0…      0.0625      1
#> 10 Y.1010_X1.0_X2.0 Y         3 Y.X1.0.X2.0 1010       "X1.0…      0.0625      1
#> # ℹ 58 more rows
…
