Set confound — set_confound • CausalQueries
…
make_model('X -> M -> Y; X <-> Y') %>%
get_parameters()
#>      X.0      X.1     M.00     M.10     M.01     M.11 Y.00_X.0 Y.10_X.0 
#>     0.50     0.50     0.25     0.25     0.25     0.25     0.25     0.25 
#> Y.01_X.0 Y.11_X.0 Y.00_X.1 Y.10_X.1 Y.01_X.1 Y.11_X.1 
#>     0.25     0.25     0.25     0.25     0.25     0.25 

model <- make_model('X -> M -> Y; X <-> Y; M <-> Y')
model$parameters_df
#> # A tibble: 38 × 8
#>    param_names   node    gen param_set  nodal_type given      param_value priors
#>    <chr>         <chr> <int> <chr>      <chr>      <chr>            <dbl>  <dbl>
#>  1 X.0           X         1 X          0          ""                0.5       1
#>  2 X.1           X         1 X          1          ""                0.5       1
#>  3 M.00          M         2 M          00         ""                0.25      1
#>  4 M.10          M         2 M          10         ""                0.25      1
#>  5 M.01          M         2 M          01         ""                0.25      1
#>  6 M.11          M         2 M          11         ""                0.25      1
#>  7 Y.00_M.00_X.0 Y         3 Y.M.00.X.0 00         "M.00, X.…        0.25      1
#>  8 Y.10_M.00_X.0 Y         3 Y.M.00.X.0 10         "M.00, X.…        0.25      1
#>  9 Y.01_M.00_X.0 Y         3 Y.M.00.X.0 01         "M.00, X.…        0.25      1
#> 10 Y.11_M.00_X.0 Y         3 Y.M.00.X.0 11         "M.00, X.…        0.25      1
#> # ℹ 28 more rows
…
